2 990
0.211796314502135 0.104858839744223
0.276330405815194 0.184263220992183
0.687255843952298 0.324366197893396
0.244178126457458 0.097146749649472
0.206027498334232 0.091994230491296
0.686786319725215 0.355967058259994
0.717487935293466 0.349708883436397
0.662409245818853 0.332353034634143
0.276429232929109 0.119335102076563
0.228559462684724 0.130304021586622
0.737988580614328 0.319220649353228
0.673301884755492 0.394468732662499
0.719276462951675 0.316662347032688
0.657205680282786 0.383612164920196
0.24517604659001 0.11846054502233
0.676745945159346 0.403059884202667
0.802471243487671 0.37192787441425
0.74564562513493 0.331874019997194
0.259013304274736 0.176265126812467
0.256671594838715 0.166610157061986
0.271805590763688 0.100880909077562
0.20324106348368 0.153437852962429
0.635715274596587 0.308056090138853
0.778994170008227 0.386288613402285
0.620880909767002 0.337068809168413
0.217378549039778 0.113623846715641
0.679118199311197 0.367897369009443
0.679080109056085 0.342446224526502
0.256244541502868 0.080716185525054
0.213576027057651 0.11501446452013
0.689011590220034 0.357316671633162
0.710369064928964 0.309740559100173
0.793226845180616 0.305328142568469
0.759476580973714 0.340215780953877
0.670282389773056 0.306581373647787
0.809274204112589 0.365225802683271
0.247013444567306 0.09558151151576
0.241696370734523 0.12660919207811
0.252797429496422 0.083394495741326
0.268104023657118 0.113282654803236
0.751203210037202 0.384284598608501
0.723028258504346 0.339032311383635
0.775344369923696 0.335258467560634
0.303550121524475 0.168981553833816
0.30818722161154 0.157228296569754
0.227691804881518 0.136619325598186
0.234143666995482 0.162729401119781
0.284336913190782 0.179014278494527
0.690000903224573 0.353620523069985
0.299779547321507 0.089660526680116
0.278612409144019 0.094859089256976
0.28890295186494 0.123045266740401
0.215712478223981 0.163417149992413
0.688734892094508 0.326400393266231
0.656846432285383 0.402465076786466
0.687006445545703 0.347260176478885
0.626939170239493 0.325329944882542
0.7849015762005 0.32687127545476
0.802204660922289 0.331234534173273
0.244387921613331 0.101565526310437
0.299921231313298 0.083362813305807
0.700911978902295 0.329686831212603
0.2137393273051 0.156193738833352
0.203667899045265 0.097089662646449
0.614256298299879 0.345279675833881
0.229208972144665 0.139588133495148
0.238397053282501 0.123889680363159
0.682324907081202 0.343968864106573
0.730786904310808 0.34065005317796
0.64389511522837 0.358192484029569
0.227586176396451 0.138706171890325
0.765207976419479 0.317324095726944
0.788158676577732 0.402613647463731
0.635386513024568 0.401285208151676
0.279472235015904 0.090276522905375
0.261079049379461 0.107103089190741
0.263501382634665 0.14938069426533
0.23508052866285 0.10196381719827
0.304969365289435 0.192818378681571
0.723059926545247 0.317157188309357
0.281320907454938 0.129946639347042
0.647914704577997 0.38522363432683
0.225747856823727 0.141187141444854
0.270599399558786 0.142348196552237
0.742093898253515 0.399412198639475
0.214092319800208 0.081667547224111
0.221731055341661 0.109241645637902
0.273390561155975 0.086554371491217
0.804241652591154 0.356420434052125
0.239868298762788 0.112312610179923
0.757254565125331 0.347830468644388
0.251630464201379 0.136247142317604
0.305612277829399 0.177379549716947
0.20293760583736 0.099170819809282
0.669564492385834 0.345479890187271
0.807087759291753 0.313425924018957
0.251945556576053 0.173901764261148
0.780670286379755 0.375711952680722
0.224660656332142 0.155841959572214
0.293492607586086 0.088441445540949
0.251490131920824 0.115457285343172
0.247003467179214 0.126608588562989
0.290256220454143 0.176805024105466
0.289348887947078 0.177503827948226
0.293849794085448 0.084193621275661
0.283994673358069 0.136867880422801
0.800596155310049 0.322283712141216
0.256590430438519 0.186555145847646
0.272883321800166 0.09046366348265
0.228031743002228 0.158142437396249
0.684222483439371 0.360392033467069
0.28590607277842 0.167195028629408
0.737575967600569 0.345785976219922
0.238029699741552 0.123973766537022
0.673639877410605 0.343177515077405
0.22862747070483 0.145452397408477
0.222846702770847 0.120032624773694
0.201308628202726 0.093043324987932
0.276411731903338 0.192995069539161
0.691887376541272 0.315726849758066
0.271172150938461 0.170041573298314
0.273572748056096 0.162685210654129
0.700566329425201 0.383418490826152
0.611403988804668 0.344389135991223
0.734023609329015 0.345869606798515
0.692986372848973 0.352908812947571
0.657162356926128 0.372342347721569
0.205809592497018 0.114912467062923
0.623064970821142 0.337803290407173
0.231011080007172 0.085363250859342
0.253047144500953 0.181905751040656
0.216063631589835 0.143744981778543
0.64835599636659 0.373282284052111
0.303386659330378 0.148443203419351
0.690722925812006 0.331488187909126
0.282729545344288 0.152422870200687
0.222705469513312 0.085416124866548
0.308867985170541 0.108056097584897
0.219645100304236 0.116096384167208
0.808772673914209 0.357096836245619
0.762562609035522 0.398912347289734
0.221548048981155 0.085437192817404
0.306155527445177 0.080525100505146
0.7125263432879 0.367079354096204
0.218761918543734 0.173864330534486
0.669374554315582 0.347931754118763
0.78229634989053 0.36900316497311
0.696019497551024 0.379333735788241
0.310236596005658 0.142800726769268
0.255149459098983 0.081773266605324
0.295103646835519 0.149365570677391
0.26615736718393 0.131071704409236
0.242617318401527 0.12409497615752
0.254817234864458 0.086777625019783
0.688920037252828 0.32035798383411
0.744423532150686 0.404170458153822
0.251980850467872 0.099048185880021
0.208697324225472 0.14174047960063
0.676735656838864 0.364038648335263
0.236010401116477 0.161856596411857
0.25055460652026 0.13816169106682
0.668171748556197 0.355101718306541
0.267294805026096 0.185300224256241
0.720086010210216 0.379304122291505
0.279887960856366 0.086555966016725
0.744673742624 0.38752021651715
0.215236008731234 0.178024062894041
0.79914349754341 0.361429119687527
0.230916230856544 0.118016619963929
0.266833216541757 0.089397396730054
0.680556033262983 0.364034296148457
0.787735918620601 0.334854394006543
0.677776817409322 0.317260528700426
0.217777911439124 0.177526998411405
0.681068037906662 0.35324003749527
0.677273538280278 0.40138615809381
0.628345072260126 0.381432721456513
0.718073509437963 0.317689293012954
0.272562779274045 0.148908957942123
0.684928941763937 0.385302675254643
0.626338889673352 0.393638736470602
0.23849407326844 0.128136504828541
0.741440691137686 0.321992111643776
0.220282312839602 0.115597836759967
0.275366684494333 0.157363559379877
0.685618637353182 0.355893139769323
0.746332822963595 0.402652872069739
0.691642795726657 0.305201461929828
0.801765908477828 0.352782739670947
0.284814243691249 0.151578830278504
0.292411944202872 0.103014270067516
0.26176413075688 0.100881204093805
0.269690273143351 0.178207771426824
0.737315174276009 0.401085436735302
0.235227615024067 0.153726453007802
0.255659769102931 0.133378987522144
0.769786344366148 0.398279275880195
0.280413180429281 0.179532303542999
0.722239559227601 0.351253451844677
0.686275435928255 0.341376950400881
0.206372018613749 0.092710057872932
0.613812576178461 0.362023991225287
0.281493702975826 0.171384173219412
0.798109166361392 0.314244152903557
0.747756303837523 0.314391280449927
0.276685991474531 0.11421630927389
0.724967890130356 0.381450758194551
0.764122448852286 0.362550961431116
0.285375741201763 0.082932622824435
0.209455730155524 0.113065898153078
0.222882355532298 0.089705964468864
0.289214814050744 0.100093290754841
0.291326927015972 0.184904150062764
0.274843869803266 0.096068339897751
0.283783643268463 0.188303743761402
0.298407393761186 0.111863297084017
0.252345060536431 0.088663244063691
0.223415669177969 0.177632252960364
0.239697397526147 0.135473131373675
0.634635038617998 0.392383695016615
0.65973635612987 0.318065147818997
0.641535799987614 0.337596817729063
0.303673298972555 0.153564952833195
0.725236419113353 0.372672540573403
0.617067046919838 0.384878683201969
0.231255099275667 0.107241033974647
0.68207682589069 0.392090082094073
0.280218920484185 0.08156797942616
0.781226167725399 0.403116635647602
0.726287370538339 0.341495966976508
0.310623888826619 0.118907510749758
0.79389505087398 0.32760464283172
0.231393230556407 0.121735915550235
0.251421677952425 0.082633040594075
0.232560258043102 0.08311193847248
0.291982731155844 0.187516837905066
0.620560227837413 0.380629395619035
0.797016639253125 0.362606011116877
0.24584809884222 0.164506220591648
0.641484541343525 0.331549029047601
0.805836005639285 0.375345944631845
0.779761824421585 0.355498009868897
0.23958516402377 0.182932095369038
0.293568990834885 0.138570874027443
0.660778580876067 0.361838670722209
0.795161289107055 0.354800922791474
0.684118001712486 0.370200630552135
0.708107830667868 0.326941613755189
0.667534675067291 0.313565474674106
0.676329505806789 0.305202937284484
0.26148862075578 0.135212403920167
0.217817308376026 0.191824933395918
0.259540731030413 0.110757191860606
0.2695658402207 0.140229339058924
0.222851051012468 0.097231254103526
0.30082433385671 0.186444865339454
0.626985288169235 0.313273470005952
0.267138372377182 0.133656799764668
0.296502823056653 0.141922919482076
0.263783623510972 0.116141515261541
0.63152254008688 0.314544038376771
0.309731171745807 0.163276137894506
0.231238367806913 0.166653798202251
0.284721252529157 0.156903875957758
0.220823327902084 0.097126566052196
0.292968229463117 0.18952163200471
0.695575670795515 0.318542908802628
0.243367637787014 0.080118935011293
0.707958267154172 0.343471443322487
0.660875359494239 0.37601400217507
0.67547450106591 0.35706554888282
0.694795725671574 0.343246901193634
0.243504049484101 0.157614678237678
0.774662261027843 0.392099749268964
0.305068147855086 0.187103781954041
0.245755753086673 0.13158523629492
0.809527487857267 0.341201304104179
0.79340625516139 0.313652528142557
0.769753320552409 0.349682083209045
0.634844148149714 0.317383445492014
0.267730194578568 0.127206166287194
0.636756455283612 0.348413823912851
0.775896467585117 0.318164471881464
0.617268432108685 0.309165147687308
0.710624854816124 0.30551999501884
0.678080779910087 0.305212035467848
0.761851381082088 0.361358323572203
0.685835175067186 0.355004799314775
0.732616343339905 0.393098772033118
0.304170275955564 0.193125154186016
0.766737683340907 0.334474381403998
0.266914555254496 0.121315710605605
0.687089066430926 0.364843906690366
0.234794836563783 0.118130437085478
0.698431392470375 0.391239248141646
0.783386635864154 0.327000065189786
0.213045961502939 0.11250490978597
0.65739867602475 0.404318409594707
0.756468685148284 0.306141590764746
0.216593343060878 0.116998917777513
0.630585373463109 0.356412142487243
0.751389681445435 0.376863242192194
0.671132473265752 0.307287055458873
0.249141040640987 0.18233427977111
0.702058684956282 0.377134751849808
0.282108102117976 0.185739809037925
0.206674681557342 0.16669334647928
0.273889948117236 0.108827020171017
0.746072067124769 0.368698022044264
0.699721597917378 0.402690526745282
0.221797492065363 0.145335574552212
0.258093834952969 0.140888249465578
0.309776274870253 0.086159738882699
0.255156874030621 0.172642534721776
0.200484629172004 0.106358417682997
0.232799914427516 0.138423398401137
0.692762014679611 0.389372877678834
0.229205024501102 0.141478321934077
0.309905809215787 0.123593565585732
0.67126601821743 0.392118710950017
0.305069743598708 0.190593863341351
0.203889351436454 0.120573246534272
0.289359595155757 0.184663521294432
0.753287939857692 0.368180324574932
0.270573327907671 0.182864361237198
0.23648431904407 0.160305120798738
0.763340822504833 0.391343952338211
0.746832898901775 0.368857784797437
0.297849198539431 0.088061480415229
0.713389182128012 0.34942333499901
0.225535097759631 0.108740759564918
0.290460553428986 0.100580404030267
0.27457262585457 0.126147234686048
0.246873580483306 0.19033357493434
0.682639315156266 0.332108818572015
0.753057801621035 0.357178374188952
0.273204287948708 0.108379811830244
0.664739058902487 0.397270712042227
0.310542288800288 0.125917700997734
0.661142092235386 0.375321582839824
0.300323190860864 0.119041707059843
0.69543281070888 0.354899489618838
0.203741789557454 0.130815177055043
0.612026955550537 0.384555438482203
0.789721638234332 0.337941908575594
0.215480627849077 0.155305202156686
0.665403062701225 0.305641569518484
0.635522305304185 0.334417983489111
0.69004196821712 0.40391050143633
0.247405147536968 0.175795143012446
0.675838629705831 0.401647833823226
0.295703440330302 0.089624314391593
0.227592841225366 0.173293194420402
0.210221374790288 0.115890398051487
0.230962651466123 0.17232205871319
0.296837090664647 0.091950828098951
0.720065131029114 0.318583904784173
0.271629446646613 0.187584134271093
0.221662361040297 0.146883235580081
0.691306630373001 0.37910924276337
0.268596680208834 0.090061950387028
0.800003676060587 0.391035821679979
0.74358314097859 0.386005692179315
0.765205973843112 0.332197137125768
0.224934915230713 0.179105397713147
0.734710145918652 0.403019136535004
0.252373794269645 0.157693355095521
0.296879678235079 0.106358964604224
0.227951855988552 0.103360281561619
0.633840155266225 0.361286162347533
0.277540979436081 0.160167235479909
0.7038225468155 0.306008893223479
0.295782139105722 0.159610293069691
0.202593349277352 0.091960555537896
0.672063328921795 0.38714550241828
0.214906951355644 0.083433802692156
0.717874788530171 0.322647619685158
0.202041723682649 0.080878242880816
0.782108046617359 0.309113201098517
0.29127661645309 0.170417457135853
0.204575012769136 0.086036285949439
0.73498183073476 0.306478810398839
0.287251774087134 0.091818263041001
0.790111205857247 0.337099066674709
0.666058512721211 0.335512949149124
0.780388101646677 0.330766882137395
0.258485793596548 0.186415827603828
0.621867823870853 0.316362231429666
0.760641387281939 0.37722602381371
0.224332998915472 0.161187478911142
0.301022058735705 0.140307544369753
0.297456669978177 0.192558994129658
0.217441860632971 0.0893123514932
0.668198977168649 0.364483446832746
0.755576150715351 0.388301861560904
0.263071064444052 0.152310997894357
0.206703682735355 0.133542732818792
0.200131397197644 0.136226550538184
0.734249828141183 0.383163160127588
0.294588751309655 0.124433944607897
0.674047290198505 0.358903355496004
0.278153639721374 0.089153668484417
0.303855296038091 0.17096628861069
0.250084276797457 0.088233541584188
0.737421768475324 0.315872410284355
0.694092026250437 0.342559443316422
0.658934468301013 0.360976749956608
0.754909720867872 0.401549633750692
0.202413062870295 0.153752723706246
0.71491569112055 0.368790297252126
0.660381806958467 0.369294357574545
0.297950571682304 0.10721000312541
0.642908889325336 0.310260666785762
0.772380411708727 0.331954542752355
0.740223227851093 0.365868321079761
0.301711583996399 0.185786643887238
0.287125656039764 0.093459705906622
0.716235823547468 0.361292632664554
0.661837224280462 0.317770187738351
0.268824586924165 0.18871907193002
0.254460298968479 0.168224038211616
0.739492258187383 0.318561637583189
0.772902487255633 0.339657377353869
0.633869970813394 0.380624538003467
0.226612645920573 0.087478630959225
0.768662029821426 0.369868870470673
0.233614829570676 0.099696295310673
0.635494786258787 0.341257049092092
0.699238637126982 0.381407219935209
0.281143983717387 0.177538992845677
0.288657328807231 0.126698676633803
0.689809147398919 0.390290826996788
0.66909137125127 0.312224855036475
0.627057187575847 0.35522055064328
0.283256863083483 0.103200344479224
0.630342640718445 0.392872705678456
0.248146720742807 0.107421969436757
0.643327519102022 0.379961652117781
0.620784684820101 0.328374710348435
0.245217043280395 0.087841121861053
0.629443077966571 0.342085812538862
0.230575199570093 0.172743982591676
0.225239648892441 0.160511930937473
0.726979310521856 0.312417453778908
0.713551353467628 0.387132433052175
0.240309411990974 0.085612777469113
0.803827979080379 0.370614134282805
0.695943440720439 0.374409368606284
0.306303551156695 0.081887642507709
0.27307878566078 0.147741642632876
0.304439908457506 0.083811655808945
0.203470933168299 0.117640488649785
0.659215648975223 0.313347792807035
0.679925936264917 0.326428369940258
0.281966047977201 0.185477250854491
0.205464023781112 0.139202528006286
0.699484968269244 0.382177799120545
0.761640606671572 0.323098139995709
0.29912911709398 0.168257171858438
0.258938712036858 0.146844573794959
0.300751417818376 0.095899999780938
0.775043127862737 0.392075118720531
0.281942717311904 0.129329526095479
0.259293741153346 0.140990382934116
0.203341232659295 0.127764269436632
0.29239235947219 0.126749126422961
0.283768648768051 0.088027018923167
0.619991288557649 0.331464381604455
0.777586220288649 0.397094947234727
0.267326756763375 0.113889453465017
0.658905921541154 0.349430236960761
0.790149719677866 0.338248451701365
0.253983649445905 0.162649746102664
0.22830405975692 0.107748019356525
0.281631268400492 0.146546731486817
0.298119551290034 0.122724138938874
0.234997913469043 0.163767072597559
0.741591063411906 0.357405713195913
0.66166563084349 0.306416215556674
0.243827092637204 0.129430862699472
0.634155768426135 0.350102115161717
0.801615021973848 0.328863983061165
0.276779368592219 0.132234613732721
0.698500500330701 0.34355084227398
0.699788425341249 0.320405331505462
0.261533777664105 0.182031159622159
0.260003797497807 0.133521208521888
0.631843835664913 0.349348049163818
0.748438829639926 0.332545425016433
0.781226785937324 0.40002453408204
0.78657376867719 0.355292018288746
0.615520362267271 0.349973092759028
0.710967015977949 0.316359060439281
0.271983104054299 0.106158316616795
0.629829586427659 0.356574209658429
0.619201408037916 0.348197424220853
0.733220822541043 0.336180080235936
0.807997988946736 0.316268458794802
0.297707630342079 0.090959092547586
0.722440820457414 0.355834899884649
0.291528124331186 0.12229346745526
0.664090200318024 0.340639975452796
0.289174312668749 0.084391480526543
0.747667568679899 0.394709999202751
0.259462939802971 0.126486994622838
0.201000523929381 0.167272084401739
0.622021882226691 0.306491076988168
0.210162673321449 0.132315101145082
0.714776117671281 0.335834342399612
0.2032103051328 0.17151115054136
0.727888039536774 0.334962302558124
0.696421636911109 0.349336447678506
0.256567658385676 0.191851196864594
0.674672583574429 0.352231226880103
0.644438679460436 0.326358147845603
0.614713242035359 0.373191196559928
0.273486482931508 0.140695076776581
0.232956014128609 0.123602658869824
0.628193497043103 0.340981299541891
0.248682233266946 0.105458836421317
0.286285059236818 0.1035903184643
0.685894090533257 0.34160088351462
0.281101292796019 0.11584213930166
0.284704465983022 0.081973951377128
0.274461801365639 0.170270254250559
0.768401340898126 0.393950561615638
0.267867023766869 0.185203471500977
0.202843817747715 0.148025458330537
0.202473411150277 0.103101428024494
0.675581692848355 0.331719960942864
0.793232431346551 0.334052145383321
0.653747457303107 0.375772719476372
0.231463044074674 0.085467829693905
0.310352330168502 0.130622152037469
0.276401692064893 0.088608183272148
0.247321628442862 0.164627965466794
0.712055539470166 0.39384732411243
0.617895866502076 0.32960559909232
0.256325084685038 0.186261939318795
0.744832308907062 0.35127416448202
0.214532748739132 0.150156399854712
0.26781598012377 0.185558022087992
0.740363068776205 0.308045762167312
0.210093989419854 0.125223728000368
0.220436188361297 0.174595608592932
0.201892351002122 0.185308861376066
0.304778644965134 0.100610199215787
0.704393082102761 0.329287060881034
0.785839768210426 0.393560043717734
0.310907343888862 0.132366424647919
0.297750179935247 0.124216404351919
0.706648365166038 0.369194578956813
0.241707016915704 0.179436227288677
0.752189614707604 0.336339334556833
0.208925899475192 0.09186786135715
0.254455562908616 0.151244157112443
0.28336812376769 0.185233242999416
0.306400478527778 0.137497167458805
0.76469459919259 0.370345381083898
0.660789556698874 0.307891837898642
0.773918286142871 0.387484184554778
0.627499596904963 0.36962699782569
0.27398117129277 0.146664599811268
0.267885078851961 0.110994659503139
0.635037220027298 0.327137977811508
0.211534833685598 0.091768908999771
0.203895391839453 0.178270951296746
0.694268921660259 0.37497011792846
0.64326704595238 0.333890482475981
0.217648722872966 0.097185777943745
0.622248401204124 0.392624934245832
0.286928164017283 0.128404499072682
0.261173202469945 0.161613316710684
0.207203819437159 0.128908036659486
0.737118037035689 0.317858467269689
0.254552906865461 0.11603087678054
0.785475002918392 0.375896536065266
0.627207975313067 0.386006863177754
0.738619865281507 0.403864561272785
0.298978060763329 0.143408733503977
0.201873661945057 0.093098299190742
0.80731388296932 0.312417257805355
0.258056008044837 0.161286376542443
0.253858296738731 0.091738065367114
0.699799819001928 0.367099324329756
0.726052107093856 0.327020264505409
0.252294008589039 0.159837921103534
0.224115355581873 0.117164602054834
0.282945701536826 0.112103443957112
0.269611162438782 0.141607542308028
0.78233628379181 0.349379554712214
0.206580384474041 0.180536401169632
0.267087505038621 0.15323608102727
0.691970701832324 0.399270515651442
0.660240921229124 0.33723095103167
0.724911165460944 0.395922736842185
0.799279158227146 0.397926470027305
0.266170615092334 0.106981959380401
0.288832583149067 0.109331934886576
0.235396276869708 0.112393422066343
0.627077283421531 0.343304154318757
0.253381413712891 0.135005710415262
0.250424124450526 0.092622509232588
0.7362194277253 0.326106507023796
0.267528487571205 0.155335006585764
0.749433009549975 0.336746475119144
0.760175593560562 0.367164614791982
0.307623013874723 0.112853196656237
0.6956716172304 0.328371537658386
0.696364329047501 0.368267659046687
0.300928195752203 0.147859985779593
0.212560236371226 0.190981989585898
0.749965893235058 0.340306879784912
0.755990639133379 0.372252007685602
0.768411195408553 0.322219413770363
0.70200533865951 0.324118098984472
0.803719066819176 0.324215153926052
0.721405195202678 0.382089865738526
0.786720987679437 0.355805765576661
0.764697776120156 0.377044980339706
0.29902435931791 0.143541382554344
0.666455165427178 0.366614058283158
0.266191195458588 0.122142330690219
0.648299793330953 0.337497513131238
0.659954627454281 0.33998271999415
0.25338249883304 0.188528587011238
0.809883146816865 0.388774281525984
0.273090674666067 0.183039816094937
0.675208873199299 0.404866347410716
0.722309877248481 0.313617550763302
0.202609986992967 0.122877215896178
0.245384879379223 0.16274958979141
0.24121448042699 0.101463070955702
0.268120902067878 0.142774465073139
0.287434760734646 0.083577598941011
0.769220259729773 0.361241712812334
0.781430551121011 0.402440169728361
0.748903031731024 0.305622552656569
0.213655145600852 0.185373034508412
0.672547711608931 0.319451944385655
0.260414800730844 0.120202141961951
0.229848362422652 0.137079095808416
0.290057082991633 0.150415615711516
0.803704820983112 0.392319542467594
0.758433586349711 0.38388732906431
0.213486652428077 0.173860810354145
0.265314165885664 0.110218273828313
0.730336229214445 0.395683426824398
0.204932132937635 0.095385135112023
0.652029926739633 0.404712482583709
0.252662607929152 0.122084927784499
0.204810724407434 0.165751605341167
0.620661591449752 0.361315998989157
0.631995081752539 0.385734662013128
0.27033867148372 0.126427640962929
0.765124846147373 0.326012979466468
0.291622500318206 0.124422868214985
0.738305120998994 0.339955352079123
0.275817701355037 0.161403685299325
0.27895216322504 0.104989866628355
0.226732105710026 0.082991821370705
0.21132041373704 0.141159323415987
0.789844803083688 0.363418114786036
0.619634264884517 0.379091490218416
0.691395762693137 0.369404007582925
0.770050199646503 0.316744753574021
0.292300540043248 0.121513693736309
0.242928209321366 0.159608693123543
0.270325994424315 0.171541969211218
0.764107945598662 0.36790287761949
0.275924611753888 0.12233205189173
0.661431478234008 0.371770296893083
0.204610984068778 0.113801924026035
0.776866324003786 0.382341227279976
0.251840094978818 0.097745572174691
0.280605144922932 0.11846147777423
0.671158425081521 0.328663758579642
0.630043286075815 0.339019597596489
0.241242376332068 0.162250050530381
0.244707711579071 0.086128371867574
0.309092188817966 0.085105206390037
0.7034200970456 0.351112981671467
0.618298553107306 0.317841344974004
0.20102219138191 0.12084483706719
0.258552056939031 0.165742747233851
0.226361376150615 0.150177926029384
0.611490944577381 0.32857332308311
0.766158041581511 0.371699950606562
0.266089699329394 0.110836880757679
0.702395410174504 0.397358140042052
0.248971753567457 0.118372344575659
0.7939542101603 0.31193786018528
0.701603362513706 0.319541709143668
0.80078048565425 0.372204620642588
0.235044184213297 0.121139023751782
0.699196429774165 0.31770719144959
0.716385939242318 0.308581002075225
0.627064461251721 0.328885343293659
0.266666352174555 0.176245631618187
0.201107030030754 0.118247449137328
0.761085312059149 0.386600851286203
0.253609201477634 0.187859003067437
0.672252222606912 0.323065022816882
0.250949878550859 0.113170228199704
0.24443654547342 0.186660352633326
0.279795912296201 0.132373114327587
0.697228106474504 0.393763360748999
0.301868603042223 0.174246583888053
0.203266264451668 0.100569875256779
0.704426805479452 0.402411707579158
0.226554158216135 0.110775366323844
0.629431962491944 0.369916907879524
0.250774030439142 0.094351531042692
0.73342947749421 0.403735914728604
0.216857407443846 0.108657335779464
0.642070445129648 0.361462643737905
0.633649704409763 0.402464135824703
0.227105566243538 0.096720268324129
0.291451707063243 0.087449019676187
0.756407113643363 0.338842677529901
0.230680407718238 0.089057354388699
0.262788485704611 0.165847812320696
0.754992772582918 0.370724572725594
0.781603124961257 0.353139471001923
0.263059198307908 0.192981535631128
0.291573279195776 0.11606437224571
0.253052224451676 0.159096769968602
0.722256649974734 0.380561166624539
0.302112273116493 0.111987998451047
0.230335093201655 0.097961881035051
0.290725492763643 0.176361232996976
0.628975186394528 0.388458925085142
0.204705102053574 0.116687890970878
0.725638972027227 0.309140977468342
0.804038498261943 0.35678229752928
0.213286385478245 0.188335686432436
0.227152834253179 0.087912881436879
0.262884471430961 0.08998057367512
0.71119200265035 0.395794006129727
0.251011389768165 0.11241669740661
0.719887505322695 0.362040928164497
0.280068649801736 0.105553625825539
0.747591714132577 0.341275834823027
0.205236296034935 0.143213772671013
0.689638196341693 0.399797213422134
0.207687151432037 0.13124347778314
0.210832056739471 0.187177100642931
0.31003603747425 0.094948302707465
0.615396377807483 0.404874949362129
0.712944738836959 0.370704445843585
0.637943122386932 0.346622905479744
0.301283864066419 0.139730302414917
0.247744611614487 0.119458932601454
0.306226108657817 0.129009275943164
0.210566891248648 0.145450932886821
0.804937116466463 0.387236357615329
0.297845916946729 0.115615983171314
0.634056049296632 0.335065252329223
0.68122256597504 0.388310220506974
0.218106285715476 0.099257101298505
0.79162796953693 0.386276840087958
0.744963109251112 0.382027893043123
0.676081571485847 0.402164619877003
0.671262276768684 0.327467166860588
0.637149779861793 0.306022510090843
0.29011616728579 0.099919077616191
0.680353206899017 0.397172680678777
0.662981407754123 0.357341540483758
0.233653089569675 0.099828401153321
0.675357713913545 0.326675732708536
0.257405818305496 0.089473973396994
0.717499870005995 0.317907447083853
0.788245410416275 0.365373514075763
0.674851250778884 0.383230429627001
0.661114383200183 0.388007035846822
0.213745929140391 0.122075521947857
0.717710831519216 0.380444545247592
0.80886822225526 0.399366242713295
0.201102100126445 0.092159721430822
0.632651185933501 0.309648150736466
0.692085205009207 0.309801046801731
0.272409882054975 0.156117125775895
0.746602575005964 0.380603053928353
0.242766358625765 0.187691635841442
0.211028158038648 0.156564718249419
0.235915857698354 0.166200045152455
0.288384291519307 0.175751490888589
0.270735192935293 0.177257725438634
0.718028920646757 0.31999105268158
0.673947715237737 0.378840674897656
0.805782444719225 0.402033363813534
0.631240933705121 0.339574508317746
0.633180347308516 0.392065460672602
0.307571909359346 0.179528528331843
0.775216240379959 0.36958104935009
0.262743667513132 0.117726060553358
0.719703219169751 0.31432228222955
0.690189471505582 0.337756750611588
0.297535596332616 0.087758367538275
0.702746672965586 0.366470184032805
0.724132689032704 0.320331462072208
0.80735483052209 0.308035491565242
0.739451086465269 0.355284321559593
0.784665453005582 0.306248546596616
0.220660533104092 0.176510607999794
0.645122761782259 0.391996733909473
0.691665399065241 0.319593869796954
0.764961603553966 0.352033165558241
0.760427270587534 0.312225104258396
0.20264217880451 0.170494348346675
0.22742459723312 0.118932079637835
0.742615446159616 0.329567620595917
0.27184237596165 0.1155586302098
0.658092274321243 0.363329690992832
0.627704784451052 0.33589736350812
0.251904923386044 0.104240954812871
0.206698665778256 0.119143940244297
0.309638299042773 0.090982248771745
0.659762778356671 0.306736338832416
0.639727879213169 0.36108318564482
0.224118996147687 0.191444668661195
0.775508932759985 0.404500085576437
0.213502658810467 0.154223244614355
0.284035777642081 0.183897267264116
0.278325334056798 0.094628787771416
0.619897696692497 0.350582498260774
0.776162489261478 0.337395082595758
0.658569798981771 0.363126094215549
0.205183330297263 0.15701811617649
0.622902660993859 0.403764060507528
0.279392428897942 0.102523997902832
0.219244543742388 0.082239655248609
0.26530717242923 0.140573151133178
0.219913919140688 0.182760021307443
0.689442839045078 0.349776437082328
0.80877370595932 0.364712067688815
0.618615365019068 0.344973992668092
0.239731284267166 0.155033862791693
0.668514218730852 0.325388962351717
0.268867446052738 0.12731063868503
0.742774603553116 0.383936244896613
0.696078971251845 0.393438830175437
0.666224317196757 0.338891182090156
0.306995475763041 0.183786057957713
0.24998991982494 0.115179341594752
0.656898353472352 0.32436151869595
0.213313080753303 0.168057015047766
0.265384049227254 0.127936417267266
0.801397425858304 0.345967646730132
0.765826813494787 0.357442472637631
0.262260842390565 0.179295627948643
0.770359801817685 0.319319479931146
0.648931540213525 0.377599186375737
0.223554062212093 0.172440375548386
0.229986437798167 0.135554022453847
0.210513243084359 0.167562244084789
0.726363313794136 0.379383911653422
0.783561010044068 0.316494860239327
0.265197330304525 0.136988789060192
0.684918610882014 0.386677330075763
0.808140893317759 0.315637480393052
0.208113177260384 0.117677295786294
0.24619612909543 0.088549118869352
0.213829014238177 0.135978950730726
0.305776913903861 0.12119446468375
0.765368762742728 0.339135286137462
0.698014022866264 0.375630196086131
0.254447900840185 0.18214717866837
0.63983785555698 0.398658934463747
0.22979064026537 0.106108515707173
0.20672922987077 0.162471958820949
0.662428313205019 0.372113722814247
0.622130685243756 0.321341865202412
0.706544070914388 0.384539667651989
0.200172386747888 0.15858976285883
0.2558855950108 0.126084786657656
0.697699447898194 0.344555979240686
0.745451005259529 0.353897206690162
0.669208241291344 0.37926185971126
0.691236786581576 0.347545427777804
0.772830021604896 0.305420670653693
0.742069404236972 0.336883103167638
0.259041565387613 0.096581720137929
0.251559462755298 0.096534606211955
0.758405948653817 0.313986652595922
0.205781284688661 0.080572750787384
0.805800861017779 0.310627142824233
0.802751372139901 0.310756604950875
0.281492921363355 0.124226505923757
0.630382056804374 0.306282669603825
0.690974054383114 0.346901735868305
0.699189517265186 0.32909807019867
0.28628143178713 0.136870009809544
0.290041581308469 0.156461296221861
0.26113118189387 0.098484359138153
0.62601960901171 0.355743896584026
0.254223276804098 0.092422951586579
0.738930540615693 0.329188080057502
0.704036003993824 0.367842863588594
0.798236138829962 0.324864934450015
0.700015541622415 0.317604902498424
0.780562811335549 0.317453566514887
0.68020251317881 0.316679801321588
0.787030638325959 0.310046346853487
0.743162566367537 0.314498868323863
0.709429581174627 0.397048431187868
0.296493368580316 0.178751502905526
0.636325584808365 0.394793790853582
0.780696230838075 0.349386374810711
0.307254411093891 0.16428392909444
0.636450487505645 0.340775276226923
0.253893779663162 0.131710091066408
0.743718475000933 0.372852854286321
0.627554872576147 0.345603380091488
0.272052486628915 0.118814358112329
0.25025740306721 0.162038588871456
0.685474539957941 0.369449887373485
0.6819614779111 0.340996567737311
0.746592911882326 0.399422158855014
0.783207924608141 0.380108942599036
0.229699578389732 0.181597357396055
0.25691983907794 0.133650549546996
0.800154006099328 0.400657182531431
0.723367583043873 0.346880537522957
0.629876274000853 0.345974038490094
0.739752600984648 0.376562945609912
0.256392254618307 0.082187702132422
0.218731990078878 0.134321840140103
0.706563461842015 0.355522183533758
0.780517669664696 0.346136101121083
0.200448475850539 0.188981650190314
0.722551920488477 0.398460787576623
0.697872663093731 0.403241764237173
0.771159612284973 0.308819970367476
0.203852199245658 0.15866043586567
0.269396950304508 0.081960911798098
0.244401279443668 0.17407087934949
0.615403302656487 0.378562788846903
0.20234452337544 0.130366013257356
0.256002104396207 0.097300794722607
0.283429050761171 0.151850350945491
0.688271539881825 0.318638278469443
0.263607524614781 0.18089058900754
0.65566787504591 0.380667958054692
0.269960238127452 0.153181171430724
0.26833959901188 0.183070732899338
0.30655082283645 0.161765842756685
0.231231657394932 0.158892134769603
0.650367398224771 0.367157745705917
0.682590554365888 0.363974700118415
0.274616302322182 0.131930348015818
0.786026734290645 0.350473472215235
0.767204741053283 0.309922441556118
0.794207089291886 0.379039284675382
0.7713093953114 0.400688685961068
0.658265809006989 0.377359166573733
0.210628774011922 0.192510361822238
0.310859233342732 0.107437791346189
0.711208655582741 0.31568502641283
0.20843233604812 0.088660497181431
0.301460970084493 0.097153965249859
0.627523485096171 0.305092641077936
0.30648193805375 0.099025905205061
0.291675729594297 0.106899012198026
0.283074813217132 0.132399427999469
0.307177463541221 0.171978162360084
0.260562350942443 0.108588431064852
0.770470274602994 0.353861524346284
0.632887592809275 0.340031060432084
0.22093550348137 0.170301124837958
0.717825650693849 0.332478325739503
0.752013919726014 0.337524930662475
0.76173789341934 0.347484393808991
0.26665346171293 0.100326399806933
0.638446707734838 0.313184000733308
0.271632992295134 0.095257416602163
0.30375745421172 0.105757386370428
0.747994522415101 0.312934550661594
0.200564611516893 0.124855698669277
0.741844877777621 0.38229280597996
0.705855188556015 0.40301566535607
0.765990919889882 0.391297511705197
0.24403167973376 0.117169566578312
0.641142868055031 0.328676468385383
0.729373672176152 0.387762309699319
0.716236898805946 0.310646552750841
0.200858974565441 0.110056392238189
0.713410254605114 0.363846577210352
0.63459942093119 0.390444368445314
0.306264984002337 0.170011375180812
0.671580236302689 0.396640966711566
0.645838611796498 0.351401556069031
0.213419677089486 0.163171388966044
0.647729330733418 0.312346266601235
0.761980772800743 0.390148142557591
0.221085758822867 0.117015853825018
0.741626621354371 0.330866052228957
0.272224159931971 0.141842224344869